{
  "camera": {
    "position": [0, -10, 0],
    "speed": 20
  },
  "pipelines": [
    {
      "vertexShader": "terrain",
      "fragmentShader": "terrain",
      "tessellationControlShader": "terrain-lod",
      "tessellationEvaluationShader": "terrain",

      "patchControlPoints": 3,

      "wireframe": false
    },
    {
      "vertexShader": "skybox",
      "fragmentShader": "skybox"
    }
  ],
  "objects": [
    {
      "model": "simple/singleplane.obj",
      "texture": "2017/terrain.png",

      "instances": 256,
      "scale": [1000, 100, 1000]
    }
  ],
  "skybox": {
    "left": "skybox/blue/blue.png",
    "right": "skybox/blue/blue.png",
    "top": "skybox/blue/sun.png",
    "bottom": "skybox/blue/water.png",
    "front": "skybox/blue/blue.png",
    "back": "skybox/blue/blue.png",

    "pipeline": 1
  }
}