{
  "pipelines": [
    {
      "vertexShader": "default",
      "fragmentShader": "diffuse"
    }
  ],
  "objects": [
    {
      "model": "simple/cube.obj",
      "texture": "simple/die.png",

      "scale": [0.3, 0.3, 0.3],
      "position": [0, 1, 0],
      "rotation": [45, 45, 45]
    },
    {
      "model": "simple/cube.obj",
      "texture": "simple/die.png",

      "scale": [0.3, 0.3, 0.3],
      "position": [1, 0, 0],
      "rotation": [-45, 45, 45]
    },
    {
      "model": "simple/cube.obj",
      "texture": "simple/die.png",

      "scale": [0.3, 0.3, 0.3],
      "position": [0, -1, 0],
      "rotation": [45, -45, 45]
    },
    {
      "model": "simple/cube.obj",
      "texture": "simple/die.png",

      "scale": [0.3, 0.3, 0.3],
      "position": [-1, 0, 0],
      "rotation": [45, 45, -45]
    },
    {
      "model": "simple/cube.obj",
      "texture": "simple/die.png",

      "scale": [0.3, 0.3, 0.3],
      "position": [-1, -1, 0],
      "rotation": [-45, 45, -45]
    },
    {
      "model": "simple/cube.obj",
      "texture": "simple/die.png",

      "scale": [0.3, 0.3, 0.3],
      "position": [1, 1, 0],
      "rotation": [45, -45, -45]
    },
    {
      "model": "simple/cube.obj",
      "texture": "simple/die.png",

      "scale": [0.3, 0.3, 0.3],
      "position": [-1, 1, 0],
      "rotation": [-45, -45, 45]
    },
    {
      "model": "simple/cube.obj",
      "texture": "simple/die.png",

      "scale": [0.3, 0.3, 0.3],
      "position": [1, -1, 0],
      "rotation": [45, 30, -90]
    }
  ],
  "lights": [
    {
      "position": [0, 0, 0]
    }
  ]
}