{
  "pipelines": [
    {
      "vertexShader": "vertshader",
      "fragmentShader": "fragshader",

      "wireframe": false
    },
    {
      "vertexShader": "vertshader",
      "fragmentShader": "fragshader",

      "tessellationControlShader": "tescshader",
      "tessellationEvaluationShader": "teseshader",

      "patchControlPoints": 3,

      "wireframe": true
    },
    {
      "vertexShader": "skybox",
      "fragmentShader": "skybox"
    }
  ],
  "objects": [
    {
      "model": "model.obj",
      "texture": "texture.png",

      "position": [1.2, 3.4, 5.6],
      "scale": [0.1, 0.2, 0.3],
      "rotation": [30.0, 45.0, 180.0],
      "color": [1, 0.5, 0],

      "instances": 1,
      "firstInstance": 0,

      "pipeline": 0
    }
  ],

  "lights": [
    {
      "position": [0, -3, 0]
    }
  ],

  "surface": {
    "forceFifo": false
  },

  "skybox": {
    "left": "<left-image>",
    "right": "<right-image>",
    "top": "<top-image>",
    "bottom": "<bottom-image>",
    "front": "<front-image>",
    "back": "<back-image>",

    "pipeline": 2
  },

  "camera": {
    "position": [0, 0, 0],
    "speed": [3, 3, 3]
  }
}